{
    "contents": [
        {
            "group": {
                "uid": "Video Input",
                "icon": "film",
                "advanced": false,
                "contents": [
                    {
                        "parameter": {
                            "uid": "vbb_1",
                            "widget": "dtkWidgetsParameterFileBrowse",
                            "advanced": false
                        }
                    }
                ]
            }
        },
        {
            "group": {
                "uid": "Graph Input",
                "icon": "paw",
                "advanced": false,
                "contents": [
                    {
                        "parameter": {
                            "uid": "gbb_1",
                            "widget": "dtkWidgetsParameterFileBrowse",
                            "advanced": false
                        }
                    }
                ]
            }
        },
        {
            "group": {
                "uid": "Worker settings",
                "icon": "truck",
                "advanced": false,
                "contents": [
                    {
                        "group": {
                            "uid": "Cone Bipolar On",
                            "icon": "chevron-right",
                            "advanced": false,
                            "contents": [
                                {
                                    "parameter": {
                                        "uid": "vrOn/temporal_step",
                                        "widget": "dtkWidgetsParameterDoubleSpinBox",
                                        "advanced": false,
                                        "persistent":true
                                    }
                                },
                                {
                                    "parameter": {
                                        "uid": "vrOn/input_luminosity_range",
                                        "widget": "dtkWidgetsParameterDoubleSpinBox",
                                        "advanced": false
                                    }
                                },
                                {
                                    "parameter": {
                                        "uid": "vrOn/pixels_per_degree",
                                        "widget": "dtkWidgetsParameterDoubleSpinBox",
                                        "advanced": false,
                                        "persistent": true
                                    }
                                },
                                {
                                    "parameter": {
                                        "uid": "vrOn/sigmaCenter",
                                        "widget": "dtkWidgetsParameterDoubleSpinBox",
                                        "advanced": false
                                    }
                                },
                                {
                                    "parameter": {
                                        "uid": "vrOn/tauCenter",
                                        "widget": "dtkWidgetsParameterDoubleSpinBox",
                                        "advanced": false
                                    }
                                },
                                {
                                    "parameter": {
                                        "uid": "vrOn/nCenter",
                                        "widget": "dtkWidgetsParameterDoubleSpinBox",
                                        "advanced": false
                                    }
                                },
                                {
                                    "parameter": {
                                        "uid": "vrOn/sigmaSurround",
                                        "widget": "dtkWidgetsParameterDoubleSpinBox",
                                        "advanced": false
                                    }
                                },
                                {
                                    "parameter": {
                                        "uid": "vrOn/tauSurround",
                                        "widget": "dtkWidgetsParameterDoubleSpinBox",
                                        "advanced": false
                                    }
                                },
                                {
                                    "parameter": {
                                        "uid": "vrOn/wSurround",
                                        "widget": "dtkWidgetsParameterDoubleSpinBox",
                                        "advanced": false
                                    }
                                },
                                {
                                    "parameter": {
                                        "uid": "vrOn/leakyHeatEq",
                                        "widget": "dtkWidgetsParameterDoubleSpinBox",
                                        "advanced": false
                                    }
                                },
                                {
                                    "parameter": {
                                        "uid": "vrOn/relative_ampOPL",
                                        "widget": "dtkWidgetsParameterDoubleSpinBox",
                                        "advanced": false
                                    }
                                },
                                {
                                    "parameter": {
                                        "uid": "vrOn/FGC_ampFeedback",
                                        "widget": "dtkWidgetsParameterDoubleSpinBox",
                                        "advanced": false
                                    }
                                },
                                {
                                    "parameter": {
                                        "uid": "vrOn/FGC_ampInputCurrent",
                                        "widget": "dtkWidgetsParameterDoubleSpinBox",
                                        "advanced": false
                                    }
                                },
                                {
                                    "parameter": {
                                        "uid": "vrOn/FGC_gLeak",
                                        "widget": "dtkWidgetsParameterDoubleSpinBox",
                                        "advanced": false
                                    }
                                },
                                {
                                    "parameter": {
                                        "uid": "vrOn/FGC_sigmaSurround",
                                        "widget": "dtkWidgetsParameterDoubleSpinBox",
                                        "advanced": false
                                    }
                                },
                                {
                                    "parameter": {
                                        "uid": "vrOn/FGC_tauSurround",
                                        "widget": "dtkWidgetsParameterDoubleSpinBox",
                                        "advanced": false
                                    }
                                }
                            ]
                        }
                    },
                    {
                        "group": {
                            "uid": "Cone Bipolar Off",
                            "icon": "chevron-right",
                            "advanced": false,
                            "contents": [
                                {
                                    "parameter": {
                                        "uid": "vrOff/temporal_step",
                                        "widget": "dtkWidgetsParameterDoubleSpinBox",
                                        "advanced": false
                                    }
                                },
                                {
                                    "parameter": {
                                        "uid": "vrOff/input_luminosity_range",
                                        "widget": "dtkWidgetsParameterDoubleSpinBox",
                                        "advanced": false
                                    }
                                },
                                {
                                    "parameter": {
                                        "uid": "vrOff/pixels_per_degree",
                                        "widget": "dtkWidgetsParameterDoubleSpinBox",
                                        "advanced": false
                                    }
                                },
                                {
                                    "parameter": {
                                        "uid": "vrOff/sigmaCenter",
                                        "widget": "dtkWidgetsParameterDoubleSpinBox",
                                        "advanced": false
                                    }
                                },
                                {
                                    "parameter": {
                                        "uid": "vrOff/tauCenter",
                                        "widget": "dtkWidgetsParameterDoubleSpinBox",
                                        "advanced": false
                                    }
                                },
                                {
                                    "parameter": {
                                        "uid": "vrOff/nCenter",
                                        "widget": "dtkWidgetsParameterDoubleSpinBox",
                                        "advanced": false
                                    }
                                },
                                {
                                    "parameter": {
                                        "uid": "vrOff/sigmaSurround",
                                        "widget": "dtkWidgetsParameterDoubleSpinBox",
                                        "advanced": false
                                    }
                                },
                                {
                                    "parameter": {
                                        "uid": "vrOff/tauSurround",
                                        "widget": "dtkWidgetsParameterDoubleSpinBox",
                                        "advanced": false
                                    }
                                },
                                {
                                    "parameter": {
                                        "uid": "vrOff/wSurround",
                                        "widget": "dtkWidgetsParameterDoubleSpinBox",
                                        "advanced": false
                                    }
                                },
                                {
                                    "parameter": {
                                        "uid": "vrOff/leakyHeatEq",
                                        "widget": "dtkWidgetsParameterDoubleSpinBox",
                                        "advanced": false
                                    }
                                },
                                {
                                    "parameter": {
                                        "uid": "vrOff/relative_ampOPL",
                                        "widget": "dtkWidgetsParameterDoubleSpinBox",
                                        "advanced": false
                                    }
                                },
                                {
                                    "parameter": {
                                        "uid": "vrOff/FGC_ampFeedback",
                                        "widget": "dtkWidgetsParameterDoubleSpinBox",
                                        "advanced": false
                                    }
                                },
                                {
                                    "parameter": {
                                        "uid": "vrOff/FGC_ampInputCurrent",
                                        "widget": "dtkWidgetsParameterDoubleSpinBox",
                                        "advanced": false
                                    }
                                },
                                {
                                    "parameter": {
                                        "uid": "vrOff/FGC_gLeak",
                                        "widget": "dtkWidgetsParameterDoubleSpinBox",
                                        "advanced": false
                                    }
                                },
                                {
                                    "parameter": {
                                        "uid": "vrOff/FGC_sigmaSurround",
                                        "widget": "dtkWidgetsParameterDoubleSpinBox",
                                        "advanced": false
                                    }
                                },
                                {
                                    "parameter": {
                                        "uid": "vrOff/FGC_tauSurround",
                                        "widget": "dtkWidgetsParameterDoubleSpinBox",
                                        "advanced": false
                                    }
                                }
                            ]
                        }
                    },
                    {
                        "group": {
                            "uid": "Rod Bipolar On",
                            "icon": "chevron-right",
                            "advanced": false,
                            "contents": [
                                {
                                    "parameter": {
                                        "uid": "vRodOn/temporal_step",
                                        "widget": "dtkWidgetsParameterDoubleSpinBox",
                                        "advanced": false
                                    }
                                },
                                {
                                    "parameter": {
                                        "uid": "vRodOn/input_luminosity_range",
                                        "widget": "dtkWidgetsParameterDoubleSpinBox",
                                        "advanced": false
                                    }
                                },
                                {
                                    "parameter": {
                                        "uid": "vRodOn/pixels_per_degree",
                                        "widget": "dtkWidgetsParameterDoubleSpinBox",
                                        "advanced": false
                                    }
                                },
                                {
                                    "parameter": {
                                        "uid": "vRodOn/sigmaCenter",
                                        "widget": "dtkWidgetsParameterDoubleSpinBox",
                                        "advanced": false
                                    }
                                },
                                {
                                    "parameter": {
                                        "uid": "vRodOn/tauCenter",
                                        "widget": "dtkWidgetsParameterDoubleSpinBox",
                                        "advanced": false
                                    }
                                },
                                {
                                    "parameter": {
                                        "uid": "vRodOn/nCenter",
                                        "widget": "dtkWidgetsParameterDoubleSpinBox",
                                        "advanced": false
                                    }
                                },
                                {
                                    "parameter": {
                                        "uid": "vRodOn/sigmaSurround",
                                        "widget": "dtkWidgetsParameterDoubleSpinBox",
                                        "advanced": false
                                    }
                                },
                                {
                                    "parameter": {
                                        "uid": "vRodOn/tauSurround",
                                        "widget": "dtkWidgetsParameterDoubleSpinBox",
                                        "advanced": false
                                    }
                                },
                                {
                                    "parameter": {
                                        "uid": "vRodOn/wSurround",
                                        "widget": "dtkWidgetsParameterDoubleSpinBox",
                                        "advanced": false
                                    }
                                },
                                {
                                    "parameter": {
                                        "uid": "vRodOn/leakyHeatEq",
                                        "widget": "dtkWidgetsParameterDoubleSpinBox",
                                        "advanced": false
                                    }
                                },
                                {
                                    "parameter": {
                                        "uid": "vRodOn/relative_ampOPL",
                                        "widget": "dtkWidgetsParameterDoubleSpinBox",
                                        "advanced": false
                                    }
                                },
                                {
                                    "parameter": {
                                        "uid": "vRodOn/FGC_ampFeedback",
                                        "widget": "dtkWidgetsParameterDoubleSpinBox",
                                        "advanced": false
                                    }
                                },
                                {
                                    "parameter": {
                                        "uid": "vRodOn/FGC_ampInputCurrent",
                                        "widget": "dtkWidgetsParameterDoubleSpinBox",
                                        "advanced": false
                                    }
                                },
                                {
                                    "parameter": {
                                        "uid": "vRodOn/FGC_gLeak",
                                        "widget": "dtkWidgetsParameterDoubleSpinBox",
                                        "advanced": false
                                    }
                                },
                                {
                                    "parameter": {
                                        "uid": "vRodOn/FGC_sigmaSurround",
                                        "widget": "dtkWidgetsParameterDoubleSpinBox",
                                        "advanced": false
                                    }
                                },
                                {
                                    "parameter": {
                                        "uid": "vRodOn/FGC_tauSurround",
                                        "widget": "dtkWidgetsParameterDoubleSpinBox",
                                        "advanced": false
                                    }
                                }
                            ]
                        }
                    },
                    {
                        "group": {
                            "uid": "Prosthesis",
                            "icon": "chevron-right",
                            "advanced": false,
                            "contents": [
                                {
                                    "parameter": {
                                        "uid": "electrode_number",
                                        "widget": "dtkWidgetsParameterIntSpinBox",
                                        "advanced": false
                                    }
                                },
                                {
                                    "parameter": {
                                        "uid": "electrode_size",
                                        "widget": "dtkWidgetsParameterIntSpinBox",
                                        "advanced": false
                                    }
                                },
                                {
                                    "parameter": {
                                        "uid": "electrode_spacing",
                                        "widget": "dtkWidgetsParameterIntSpinBox",
                                        "advanced": false
                                    }
                                },
                                {
                                    "parameter": {
                                        "uid": "activation_levels",
                                        "widget": "dtkWidgetsParameterDoubleSpinBox",
                                        "advanced": false
                                    }
                                },
                                {
                                    "parameter": {
                                        "uid": "vert_matrix_size",
                                        "widget": "dtkWidgetsParameterIntSpinBox",
                                        "advanced": false
                                    }
                                },
                                {
                                    "parameter": {
                                        "uid": "hori_matrix_size",
                                        "widget": "dtkWidgetsParameterIntSpinBox",
                                        "advanced": false
                                    }
                                },
                                {
                                    "parameter": {
                                        "uid": "vert_optic_disc",
                                        "widget": "dtkWidgetsParameterIntSpinBox",
                                        "advanced": false
                                    }
                                },
                                {
                                    "parameter": {
                                        "uid": "hori_optic_disc",
                                        "widget": "dtkWidgetsParameterIntSpinBox",
                                        "advanced": false
                                    }
                                },
                                {
                                    "parameter": {
                                        "uid": "vert_electrode",
                                        "widget": "dtkWidgetsParameterIntSpinBox",
                                        "advanced": false
                                    }
                                },
                                {
                                    "parameter": {
                                        "uid": "hori_electrode",
                                        "widget": "dtkWidgetsParameterIntSpinBox",
                                        "advanced": false
                                    }
                                },
                                {
                                    "parameter": {
                                        "uid": "sigmoid_baseline",
                                        "widget": "dtkWidgetsParameterDoubleSpinBox",
                                        "advanced": false
                                    }
                                },
                                {
                                    "parameter": {
                                        "uid": "sigmoid_amplitude",
                                        "widget": "dtkWidgetsParameterDoubleSpinBox",
                                        "advanced": false
                                    }
                                },
                                {
                                    "parameter": {
                                        "uid": "isotropic_spread_deviation",
                                        "widget": "dtkWidgetsParameterDoubleSpinBox",
                                        "advanced": false
                                    }
                                },
                                {
                                    "parameter": {
                                        "uid": "anisotropic_spread_deviation",
                                        "widget": "dtkWidgetsParameterDoubleSpinBox",
                                        "advanced": false
                                    }
                                },
                                {
                                    "parameter": {
                                        "uid": "ep_ratio",
                                        "widget": "dtkWidgetsParameterDoubleSpinBox",
                                        "advanced": false
                                    }
                                },
                                {
                                    "parameter": {
                                        "uid": "retinal_smoothing_criteria",
                                        "widget": "dtkWidgetsParameterIntSpinBox",
                                        "advanced": false
                                    }
                                },
                                {
                                    "parameter": {
                                        "uid": "cortical_smoothing_criteria",
                                        "widget": "dtkWidgetsParameterIntSpinBox",
                                        "advanced": false
                                    }
                                },
                                {
                                    "parameter": {
                                        "uid": "v_magnification_rat_1",
                                        "widget": "dtkWidgetsParameterDoubleSpinBox",
                                        "advanced": false
                                    }
                                },
                                {
                                    "parameter": {
                                        "uid": "v_magnification_rat_2",
                                        "widget": "dtkWidgetsParameterDoubleSpinBox",
                                        "advanced": false
                                    }
                                },
                                {
                                    "parameter": {
                                        "uid": "h_magnification_rat_1",
                                        "widget": "dtkWidgetsParameterDoubleSpinBox",
                                        "advanced": false
                                    }
                                },
                                {
                                    "parameter": {
                                        "uid": "h_magnification_rat_2",
                                        "widget": "dtkWidgetsParameterDoubleSpinBox",
                                        "advanced": false
                                    }
                                }
                            ]
                        }
                    }
                ]
            }
        },
        {
            "group": {
                "uid": "Controls",
                "icon": "playcircle",
                "advanced": false,
                "contents": [
                    {
                        "parameter": {
                            "uid": "run",
                            "widget": "dtkWidgetsParameterBoolPushButton",
                            "advanced": false
                        }
                    },
                    {
                        "parameter": {
                            "uid": "reset",
                            "widget": "dtkWidgetsParameterBoolPushButton",
                            "advanced": false
                        }
                    },
                    {
                        "parameter": {
                            "uid": "framerate",
                            "widget": "dtkWidgetsParameterIntSpinBox",
                            "advanced": true
                        }
                    },
                    {
                        "parameter": {
                            "uid": "dt",
                            "widget": "dtkWidgetsParameterDoubleSpinBox",
                            "advanced": true
                        }
                    },
                    {
                        "parameter": {
                            "uid": "save_restore",
                            "widget": "dtkWidgetsParameterBoolCheckBox",
                            "advanced": true
                        }
                    },
                    {
                        "parameter": {
                            "uid": "save_frequency",
                            "widget": "dtkWidgetsParameterIntSpinBox",
                            "advanced": true
                        }
                    },
                    {
                        "parameter": {
                            "uid": "model",
                            "widget": "dtkWidgetsParameterStringListComboBox",
                            "advanced": false
                        }
                    }
                ]
            }
        }
    ]
}
